DATA * HEADS 22-26 image alt >2 image alt >1
…
In this section we explore how death causes have changed over time.

Firstly, we identify the causes of death with highest magnitude in 2019, to focus on those in our subsequent analyses:

data %>% 
  filter(location_name=="Global",
         year == 2019,
         measure_name=="Deaths",
         age_name=="All ages",
         metric_name=="Rate") %>% #apply necessary filters to ensure logical consistency
  arrange(desc(val)) %>%  #sort from highest to lowest
  select(cause_name, val) 

# A tibble: 21 x 2
   cause_name                                val
   <fct>                                   <dbl>
 1 Cardiovascular diseases                 240. 
 2 Neoplasms                               130. 
 3 Chronic respiratory diseases             51.4
 4 Respiratory infections and tuberculosis  47.6
 5 Diabetes and kidney diseases             38.6
 6 Digestive diseases                       33.1
 7 Neurological disorders                   28.7
 8 Maternal and neonatal disorders          26.9
 9 Unintentional injuries                   22.9
10 Enteric infections                       22.6
# ... with 11 more rows
…
