DATA * HEADS 22-26 image alt >2 image alt >1
…
In this section we explore how death causes have changed globally over time, and how are they distributed across countries.

Firstly, we identify the causes of death with highest magnitude in 2019, to focus on those in our subsequent analyses:

data %>% 
  filter(location_name=="Global",
         year == 2019,
         measure_name=="Deaths",
         metric_name=="Rate") %>% # Apply necessary filters to ensure logical consistency
  arrange(desc(val)) %>%  # Sort from highest to lowest
  select(cause_name, val, age_name) %>% 
  pivot_wider(names_from = "age_name", values_from="val") # Convert age_name to wide format to improve readability

# A tibble: 21 x 3
   cause_name                              `All ages` `Age-standardized`
   <fct>                                        <dbl>              <dbl>
 1 Cardiovascular diseases                      240.               240. 
 2 Neoplasms                                    130.               125. 
 3 Chronic respiratory diseases                  51.4               51.3
 4 Respiratory infections and tuberculosis       47.6               49.1
 5 Diabetes and kidney diseases                  38.6               37.9
 6 Digestive diseases                            33.1               32.1
 7 Maternal and neonatal disorders               26.9               31.5
 8 Neurological disorders                        28.7               30.7
 9 Enteric infections                            22.6               23.9
10 Unintentional injuries                        22.9               23.1
# ... with 11 more rows
…
